Assignment 14: Twitters Mining with rtweet
…
Choose a location then pick a trending keyword/hashtag in the location. Download the data associated with the keyword/hashtag. Plot at least 10 plots to visualize the data associated with the keyword/hashtag. All plots should have titles and captions.

# Show available locations to get trends
trends_available()

## # A tibble: 467 x 8
##    name       url           parentid country  woeid countryCode  code place_type
##    <chr>      <chr>            <int> <chr>    <int> <chr>       <int> <chr>     
##  1 Worldwide  http://where~        0 ""           1 <NA>           19 Supername 
##  2 Winnipeg   http://where~ 23424775 "Canada"  2972 CA              7 Town      
##  3 Ottawa     http://where~ 23424775 "Canada"  3369 CA              7 Town      
##  4 Quebec     http://where~ 23424775 "Canada"  3444 CA              7 Town      
##  5 Montreal   http://where~ 23424775 "Canada"  3534 CA              7 Town      
##  6 Toronto    http://where~ 23424775 "Canada"  4118 CA              7 Town      
##  7 Edmonton   http://where~ 23424775 "Canada"  8676 CA              7 Town      
##  8 Calgary    http://where~ 23424775 "Canada"  8775 CA              7 Town      
##  9 Vancouver  http://where~ 23424775 "Canada"  9807 CA              7 Town      
## 10 Birmingham http://where~ 23424975 "United~ 12723 GB              7 Town      
## # ... with 457 more rows

get_trends('Boston')

## # A tibble: 50 x 9
##    trend       url            promoted_content query   tweet_volume place  woeid
##    <chr>       <chr>          <lgl>            <chr>          <int> <chr>  <int>
##  1 #UFC269     http://twitte~ NA               %23UFC~       311101 Bost~ 2.37e6
##  2 Lewis       http://twitte~ NA               Lewis         597660 Bost~ 2.37e6
##  3 Hamilton    http://twitte~ NA               Hamilt~       745867 Bost~ 2.37e6
##  4 #AbuDhabiGP http://twitte~ NA               %23Abu~       962806 Bost~ 2.37e6
##  5 Browns      http://twitte~ NA               Browns         62540 Bost~ 2.37e6
##  6 Raiders     http://twitte~ NA               Raiders        71120 Bost~ 2.37e6
##  7 Ravens      http://twitte~ NA               Ravens         50895 Bost~ 2.37e6
##  8 Cowboys     http://twitte~ NA               Cowboys        54191 Bost~ 2.37e6
##  9 Chiefs      http://twitte~ NA               Chiefs         69623 Bost~ 2.37e6
## 10 Lamar       http://twitte~ NA               Lamar          30653 Bost~ 2.37e6
## # ... with 40 more rows, and 2 more variables: as_of <dttm>, created_at <dttm>
…
