Assignment 8: Visualization - Making a bar race
…
d$weekday = wday(d$date)
drop_na(d, hospitalizedCurrently)

## # A tibble: 17,339 x 42
##    date       state death deathConfirmed deathIncrease deathProbable
##    <date>     <chr> <dbl>          <dbl>         <dbl>         <dbl>
##  1 2021-03-07 AK      305             NA             0            NA
##  2 2021-03-07 AL    10148           7963            -1          2185
##  3 2021-03-07 AR     5319           4308            22          1011
##  4 2021-03-07 AZ    16328          14403             5          1925
##  5 2021-03-07 CA    54124             NA           258            NA
##  6 2021-03-07 CO     5989           5251             3           735
##  7 2021-03-07 CT     7704           6327             0          1377
##  8 2021-03-07 DC     1030             NA             0            NA
##  9 2021-03-07 DE     1473           1337             9           136
## 10 2021-03-07 FL    32266             NA            66            NA
## # ... with 17,329 more rows, and 36 more variables: hospitalized <dbl>,
## #   hospitalizedCumulative <dbl>, hospitalizedCurrently <dbl>,
## #   hospitalizedIncrease <dbl>, inIcuCumulative <dbl>, inIcuCurrently <dbl>,
## #   negative <dbl>, negativeIncrease <dbl>, negativeTestsAntibody <dbl>,
## #   negativeTestsPeopleAntibody <lgl>, negativeTestsViral <dbl>,
## #   onVentilatorCumulative <dbl>, onVentilatorCurrently <dbl>, positive <dbl>,
## #   positiveCasesViral <dbl>, positiveIncrease <dbl>, positiveScore <dbl>, ...
…
